{
  "name": "Card",
  "fields": [
    {
      "fieldName": "score",
      "fieldType": "Integer"
    },
    {
      "fieldName": "number",
      "fieldType": "Integer"
    },
    {
      "fieldName": "cvv",
      "fieldType": "Integer"
    },
    {
      "fieldName": "date",
      "fieldType": "String"
    }
  ],
  "relationships": [
    {
      "relationshipType": "many-to-one",
      "otherEntityName": "invoice",
      "otherEntityRelationshipName": "card",
      "relationshipName": "invoice"
    }
  ],
  "entityTableName": "card",
  "dto": "no",
  "pagination": "no",
  "service": "serviceClass",
  "jpaMetamodelFiltering": true,
  "fluentMethods": true,
  "readOnly": false,
  "embedded": false,
  "applications": "*",
  "changelogDate": "20210428013445"
}
